White Box Analysis Comparison
…
distinct(wb_analysiscomparison, pair_id)

## # A tibble: 315 x 1
##    pair_id
##    <chr>  
##  1 M010003
##  2 M020006
##  3 M025026
##  4 M027001
##  5 M028010
##  6 M038070
##  7 M039057
##  8 M048058
##  9 M060021
## 10 M063053
## # … with 305 more rows
…
